%YAML 1.1
%TAG !u! tag:unity3d.com,2011:
--- !u!136 &8857540778807392786
CapsuleCollider:
  m_ObjectHideFlags: 0
  m_CorrespondingSourceObject: {fileID: 0}
  m_PrefabInstance: {fileID: 0}
  m_PrefabAsset: {fileID: 0}
  m_GameObject: {fileID: 5369048861927277760}
  m_Material: {fileID: 0}
  m_IsTrigger: 0
  m_Enabled: 1
  m_Radius: 0.5
  m_Height: 2
  m_Direction: 1
  m_Center: {x: 0, y: 1, z: 0}
--- !u!114 &1771597702788805051
MonoBehaviour:
  m_ObjectHideFlags: 0
  m_CorrespondingSourceObject: {fileID: 0}
  m_PrefabInstance: {fileID: 0}
  m_PrefabAsset: {fileID: 0}
  m_GameObject: {fileID: 5369048861927277760}
  m_Enabled: 1
  m_EditorHideFlags: 0
  m_Script: {fileID: 11500000, guid: ed7943070c3ae0a4897d5d2e21e019dd, type: 3}
  m_Name: 
  m_EditorClassIdentifier: 
--- !u!114 &3415130275927974913
MonoBehaviour:
  m_ObjectHideFlags: 0
  m_CorrespondingSourceObject: {fileID: 0}
  m_PrefabInstance: {fileID: 0}
  m_PrefabAsset: {fileID: 0}
  m_GameObject: {fileID: 5369048861927277760}
  m_Enabled: 1
  m_EditorHideFlags: 0
  m_Script: {fileID: 11500000, guid: 0517622582eb5d84d9a9e287d6a1c0a0, type: 3}
  m_Name: 
  m_EditorClassIdentifier: 
  chaseDistance: 5
  suspiciousTime: 3
  patrolPath: {fileID: 0}
  waypointTolerance: 1
  waypointDwellTime: 3
  patrolSpeedFraction: 0.4
--- !u!1001 &3808473992720332660
PrefabInstance:
  m_ObjectHideFlags: 0
  serializedVersion: 2
  m_Modification:
    m_TransformParent: {fileID: 0}
    m_Modifications:
    - target: {fileID: 9104268080876139444, guid: ba0a63508a67b0042bdd13ec90650c65,
        type: 3}
      propertyPath: m_Name
      value: Ennemy
      objectReference: {fileID: 0}
    - target: {fileID: 9104268080876139432, guid: ba0a63508a67b0042bdd13ec90650c65,
        type: 3}
      propertyPath: m_LocalPosition.x
      value: 1.7094635
      objectReference: {fileID: 0}
    - target: {fileID: 9104268080876139432, guid: ba0a63508a67b0042bdd13ec90650c65,
        type: 3}
      propertyPath: m_LocalPosition.y
      value: 0
      objectReference: {fileID: 0}
    - target: {fileID: 9104268080876139432, guid: ba0a63508a67b0042bdd13ec90650c65,
        type: 3}
      propertyPath: m_LocalPosition.z
      value: 3.1001844
      objectReference: {fileID: 0}
    - target: {fileID: 9104268080876139432, guid: ba0a63508a67b0042bdd13ec90650c65,
        type: 3}
      propertyPath: m_LocalRotation.x
      value: -0
      objectReference: {fileID: 0}
    - target: {fileID: 9104268080876139432, guid: ba0a63508a67b0042bdd13ec90650c65,
        type: 3}
      propertyPath: m_LocalRotation.y
      value: -0.9620776
      objectReference: {fileID: 0}
    - target: {fileID: 9104268080876139432, guid: ba0a63508a67b0042bdd13ec90650c65,
        type: 3}
      propertyPath: m_LocalRotation.z
      value: -0
      objectReference: {fileID: 0}
    - target: {fileID: 9104268080876139432, guid: ba0a63508a67b0042bdd13ec90650c65,
        type: 3}
      propertyPath: m_LocalRotation.w
      value: 0.2727759
      objectReference: {fileID: 0}
    - target: {fileID: 9104268080876139432, guid: ba0a63508a67b0042bdd13ec90650c65,
        type: 3}
      propertyPath: m_RootOrder
      value: 0
      objectReference: {fileID: 0}
    - target: {fileID: 9104268080876139432, guid: ba0a63508a67b0042bdd13ec90650c65,
        type: 3}
      propertyPath: m_LocalEulerAnglesHint.x
      value: 0
      objectReference: {fileID: 0}
    - target: {fileID: 9104268080876139432, guid: ba0a63508a67b0042bdd13ec90650c65,
        type: 3}
      propertyPath: m_LocalEulerAnglesHint.y
      value: -148.341
      objectReference: {fileID: 0}
    - target: {fileID: 9104268080876139432, guid: ba0a63508a67b0042bdd13ec90650c65,
        type: 3}
      propertyPath: m_LocalEulerAnglesHint.z
      value: 0
      objectReference: {fileID: 0}
    - target: {fileID: 1374598311, guid: ba0a63508a67b0042bdd13ec90650c65, type: 3}
      propertyPath: maxSpeed
      value: 5
      objectReference: {fileID: 0}
    - target: {fileID: 1374598312, guid: ba0a63508a67b0042bdd13ec90650c65, type: 3}
      propertyPath: m_Speed
      value: 3
      objectReference: {fileID: 0}
    - target: {fileID: 4744531117552808462, guid: ba0a63508a67b0042bdd13ec90650c65,
        type: 3}
      propertyPath: healthPoints
      value: 20
      objectReference: {fileID: 0}
    m_RemovedComponents: []
  m_SourcePrefab: {fileID: 100100000, guid: ba0a63508a67b0042bdd13ec90650c65, type: 3}
--- !u!1 &5369048861927277760 stripped
GameObject:
  m_CorrespondingSourceObject: {fileID: 9104268080876139444, guid: ba0a63508a67b0042bdd13ec90650c65,
    type: 3}
  m_PrefabInstance: {fileID: 3808473992720332660}
  m_PrefabAsset: {fileID: 0}
--- !u!4 &5369048861927277788 stripped
Transform:
  m_CorrespondingSourceObject: {fileID: 9104268080876139432, guid: ba0a63508a67b0042bdd13ec90650c65,
    type: 3}
  m_PrefabInstance: {fileID: 3808473992720332660}
  m_PrefabAsset: {fileID: 0}
--- !u!1001 &9080101218293703580
PrefabInstance:
  m_ObjectHideFlags: 0
  serializedVersion: 2
  m_Modification:
    m_TransformParent: {fileID: 5369048861927277788}
    m_Modifications:
    - target: {fileID: 133518, guid: 30cf93deff988e74e88a144bd2127c18, type: 3}
      propertyPath: m_Name
      value: Character_Knights_Soldier_01
      objectReference: {fileID: 0}
    - target: {fileID: 417656, guid: 30cf93deff988e74e88a144bd2127c18, type: 3}
      propertyPath: m_LocalPosition.x
      value: 0
      objectReference: {fileID: 0}
    - target: {fileID: 417656, guid: 30cf93deff988e74e88a144bd2127c18, type: 3}
      propertyPath: m_LocalPosition.y
      value: 0
      objectReference: {fileID: 0}
    - target: {fileID: 417656, guid: 30cf93deff988e74e88a144bd2127c18, type: 3}
      propertyPath: m_LocalPosition.z
      value: 0
      objectReference: {fileID: 0}
    - target: {fileID: 417656, guid: 30cf93deff988e74e88a144bd2127c18, type: 3}
      propertyPath: m_LocalRotation.x
      value: 0
      objectReference: {fileID: 0}
    - target: {fileID: 417656, guid: 30cf93deff988e74e88a144bd2127c18, type: 3}
      propertyPath: m_LocalRotation.y
      value: 0
      objectReference: {fileID: 0}
    - target: {fileID: 417656, guid: 30cf93deff988e74e88a144bd2127c18, type: 3}
      propertyPath: m_LocalRotation.z
      value: 0
      objectReference: {fileID: 0}
    - target: {fileID: 417656, guid: 30cf93deff988e74e88a144bd2127c18, type: 3}
      propertyPath: m_LocalRotation.w
      value: 1
      objectReference: {fileID: 0}
    - target: {fileID: 417656, guid: 30cf93deff988e74e88a144bd2127c18, type: 3}
      propertyPath: m_RootOrder
      value: 0
      objectReference: {fileID: 0}
    - target: {fileID: 417656, guid: 30cf93deff988e74e88a144bd2127c18, type: 3}
      propertyPath: m_LocalEulerAnglesHint.x
      value: 0
      objectReference: {fileID: 0}
    - target: {fileID: 417656, guid: 30cf93deff988e74e88a144bd2127c18, type: 3}
      propertyPath: m_LocalEulerAnglesHint.y
      value: 0
      objectReference: {fileID: 0}
    - target: {fileID: 417656, guid: 30cf93deff988e74e88a144bd2127c18, type: 3}
      propertyPath: m_LocalEulerAnglesHint.z
      value: 0
      objectReference: {fileID: 0}
    - target: {fileID: 13787996, guid: 30cf93deff988e74e88a144bd2127c18, type: 3}
      propertyPath: m_Materials.Array.data[0]
      value: 
      objectReference: {fileID: 2100000, guid: bfbe2e8b331e2cc42be1591f949c0e41, type: 2}
    m_RemovedComponents: []
  m_SourcePrefab: {fileID: 100100000, guid: 30cf93deff988e74e88a144bd2127c18, type: 3}
