%YAML 1.1
%TAG !u! tag:unity3d.com,2011:
--- !u!114 &6856638832711892121
MonoBehaviour:
  m_ObjectHideFlags: 0
  m_CorrespondingSourceObject: {fileID: 0}
  m_PrefabInstance: {fileID: 0}
  m_PrefabAsset: {fileID: 0}
  m_GameObject: {fileID: 8735355901195972368}
  m_Enabled: 1
  m_EditorHideFlags: 0
  m_Script: {fileID: 11500000, guid: d92f1adbd9fa9da498528cee615769d1, type: 3}
  m_Name: 
  m_EditorClassIdentifier: 
--- !u!1001 &532247724409052324
PrefabInstance:
  m_ObjectHideFlags: 0
  serializedVersion: 2
  m_Modification:
    m_TransformParent: {fileID: 0}
    m_Modifications:
    - target: {fileID: 9104268080876139444, guid: ba0a63508a67b0042bdd13ec90650c65,
        type: 3}
      propertyPath: m_Name
      value: Player
      objectReference: {fileID: 0}
    - target: {fileID: 9104268080876139444, guid: ba0a63508a67b0042bdd13ec90650c65,
        type: 3}
      propertyPath: m_TagString
      value: Player
      objectReference: {fileID: 0}
    - target: {fileID: 9104268080876139432, guid: ba0a63508a67b0042bdd13ec90650c65,
        type: 3}
      propertyPath: m_LocalPosition.x
      value: 0
      objectReference: {fileID: 0}
    - target: {fileID: 9104268080876139432, guid: ba0a63508a67b0042bdd13ec90650c65,
        type: 3}
      propertyPath: m_LocalPosition.y
      value: 0
      objectReference: {fileID: 0}
    - target: {fileID: 9104268080876139432, guid: ba0a63508a67b0042bdd13ec90650c65,
        type: 3}
      propertyPath: m_LocalPosition.z
      value: 0
      objectReference: {fileID: 0}
    - target: {fileID: 9104268080876139432, guid: ba0a63508a67b0042bdd13ec90650c65,
        type: 3}
      propertyPath: m_LocalRotation.x
      value: 0
      objectReference: {fileID: 0}
    - target: {fileID: 9104268080876139432, guid: ba0a63508a67b0042bdd13ec90650c65,
        type: 3}
      propertyPath: m_LocalRotation.y
      value: 0
      objectReference: {fileID: 0}
    - target: {fileID: 9104268080876139432, guid: ba0a63508a67b0042bdd13ec90650c65,
        type: 3}
      propertyPath: m_LocalRotation.z
      value: 0
      objectReference: {fileID: 0}
    - target: {fileID: 9104268080876139432, guid: ba0a63508a67b0042bdd13ec90650c65,
        type: 3}
      propertyPath: m_LocalRotation.w
      value: 1
      objectReference: {fileID: 0}
    - target: {fileID: 9104268080876139432, guid: ba0a63508a67b0042bdd13ec90650c65,
        type: 3}
      propertyPath: m_RootOrder
      value: 0
      objectReference: {fileID: 0}
    - target: {fileID: 9104268080876139432, guid: ba0a63508a67b0042bdd13ec90650c65,
        type: 3}
      propertyPath: m_LocalEulerAnglesHint.x
      value: 0
      objectReference: {fileID: 0}
    - target: {fileID: 9104268080876139432, guid: ba0a63508a67b0042bdd13ec90650c65,
        type: 3}
      propertyPath: m_LocalEulerAnglesHint.y
      value: 0
      objectReference: {fileID: 0}
    - target: {fileID: 9104268080876139432, guid: ba0a63508a67b0042bdd13ec90650c65,
        type: 3}
      propertyPath: m_LocalEulerAnglesHint.z
      value: 0
      objectReference: {fileID: 0}
    - target: {fileID: 1374598312, guid: ba0a63508a67b0042bdd13ec90650c65, type: 3}
      propertyPath: m_Speed
      value: 5.66
      objectReference: {fileID: 0}
    - target: {fileID: 1374598312, guid: ba0a63508a67b0042bdd13ec90650c65, type: 3}
      propertyPath: m_Enabled
      value: 1
      objectReference: {fileID: 0}
    m_RemovedComponents: []
  m_SourcePrefab: {fileID: 100100000, guid: ba0a63508a67b0042bdd13ec90650c65, type: 3}
--- !u!1 &8735355901195972368 stripped
GameObject:
  m_CorrespondingSourceObject: {fileID: 9104268080876139444, guid: ba0a63508a67b0042bdd13ec90650c65,
    type: 3}
  m_PrefabInstance: {fileID: 532247724409052324}
  m_PrefabAsset: {fileID: 0}
--- !u!4 &8735355901195972364 stripped
Transform:
  m_CorrespondingSourceObject: {fileID: 9104268080876139432, guid: ba0a63508a67b0042bdd13ec90650c65,
    type: 3}
  m_PrefabInstance: {fileID: 532247724409052324}
  m_PrefabAsset: {fileID: 0}
--- !u!1001 &1027148031970172703
PrefabInstance:
  m_ObjectHideFlags: 0
  serializedVersion: 2
  m_Modification:
    m_TransformParent: {fileID: 8735355901195972364}
    m_Modifications:
    - target: {fileID: 191330, guid: 679ff741e12a7e740819ede24a7000b7, type: 3}
      propertyPath: m_Name
      value: Character_Knights_Soldier_02
      objectReference: {fileID: 0}
    - target: {fileID: 435482, guid: 679ff741e12a7e740819ede24a7000b7, type: 3}
      propertyPath: m_LocalPosition.x
      value: 0
      objectReference: {fileID: 0}
    - target: {fileID: 435482, guid: 679ff741e12a7e740819ede24a7000b7, type: 3}
      propertyPath: m_LocalPosition.y
      value: -0.038
      objectReference: {fileID: 0}
    - target: {fileID: 435482, guid: 679ff741e12a7e740819ede24a7000b7, type: 3}
      propertyPath: m_LocalPosition.z
      value: 0
      objectReference: {fileID: 0}
    - target: {fileID: 435482, guid: 679ff741e12a7e740819ede24a7000b7, type: 3}
      propertyPath: m_LocalRotation.x
      value: 0
      objectReference: {fileID: 0}
    - target: {fileID: 435482, guid: 679ff741e12a7e740819ede24a7000b7, type: 3}
      propertyPath: m_LocalRotation.y
      value: 0
      objectReference: {fileID: 0}
    - target: {fileID: 435482, guid: 679ff741e12a7e740819ede24a7000b7, type: 3}
      propertyPath: m_LocalRotation.z
      value: 0
      objectReference: {fileID: 0}
    - target: {fileID: 435482, guid: 679ff741e12a7e740819ede24a7000b7, type: 3}
      propertyPath: m_LocalRotation.w
      value: 1
      objectReference: {fileID: 0}
    - target: {fileID: 435482, guid: 679ff741e12a7e740819ede24a7000b7, type: 3}
      propertyPath: m_RootOrder
      value: 0
      objectReference: {fileID: 0}
    - target: {fileID: 435482, guid: 679ff741e12a7e740819ede24a7000b7, type: 3}
      propertyPath: m_LocalEulerAnglesHint.x
      value: 0
      objectReference: {fileID: 0}
    - target: {fileID: 435482, guid: 679ff741e12a7e740819ede24a7000b7, type: 3}
      propertyPath: m_LocalEulerAnglesHint.y
      value: 0
      objectReference: {fileID: 0}
    - target: {fileID: 435482, guid: 679ff741e12a7e740819ede24a7000b7, type: 3}
      propertyPath: m_LocalEulerAnglesHint.z
      value: 0
      objectReference: {fileID: 0}
    - target: {fileID: 492140, guid: 679ff741e12a7e740819ede24a7000b7, type: 3}
      propertyPath: m_LocalPosition.y
      value: -0.586
      objectReference: {fileID: 0}
    - target: {fileID: 13707166, guid: 679ff741e12a7e740819ede24a7000b7, type: 3}
      propertyPath: m_Materials.Array.data[0]
      value: 
      objectReference: {fileID: 2100000, guid: 3f6fc0cf5e5d31c458bc74ede87cb8ae, type: 2}
    m_RemovedComponents: []
  m_SourcePrefab: {fileID: 100100000, guid: 679ff741e12a7e740819ede24a7000b7, type: 3}
